<svg id="niespodzianka" xmlns="http://www.w3.org/2000/svg" width="66" height="64" viewBox="0 0 66 64">
  <metadata><?xpacket begin="﻿" id="W5M0MpCehiHzreSzNTczkc9d"?>
<x:xmpmeta xmlns:x="adobe:ns:meta/" x:xmptk="Adobe XMP Core 5.6-c138 79.159824, 2016/09/14-01:09:01        ">
   <rdf:RDF xmlns:rdf="http://www.w3.org/1999/02/22-rdf-syntax-ns#">
      <rdf:Description rdf:about=""/>
   </rdf:RDF>
</x:xmpmeta>
                                                                                                    
                                                                                                    
                                                                                                    
                                                                                                    
                                                                                                    
                                                                                                    
                                                                                                    
                                                                                                    
                                                                                                    
                                                                                                    
                                                                                                    
                                                                                                    
                                                                                                    
                                                                                                    
                                                                                                    
                                                                                                    
                                                                                                    
                                                                                                    
                                                                                                    
                                                                                                    
                           
<?xpacket end="w"?></metadata>
<defs>
    <style>
      .cls-1 {
        fill: #f2ddd5;
      }

      .cls-1, .cls-2 {
        fill-rule: evenodd;
      }
    </style>
  </defs>
  <path class="cls-1" d="M4629.77,5548.89l-2.57-2.55a1.431,1.431,0,0,0-2.01,0,1.4,1.4,0,0,0,0,2l2.57,2.55A1.418,1.418,0,0,0,4629.77,5548.89Zm9.81-5.63a1.462,1.462,0,0,0,.37.64,1.437,1.437,0,0,0,1.38.36,1.4,1.4,0,0,0,1-1.73l-0.94-3.48a1.423,1.423,0,0,0-2.75.73Zm38.81,20.37-3.6.47a1.405,1.405,0,0,0-.36,2.7,1.478,1.478,0,0,0,.73.1l3.6-.47A1.412,1.412,0,1,0,4678.39,5563.63Zm-57.55,7.47-3.6.47a1.412,1.412,0,0,0-.36,2.71,1.371,1.371,0,0,0,.73.09l3.6-.47a1.416,1.416,0,0,0,1.23-1.58A1.435,1.435,0,0,0,4620.84,5571.1Zm47.4,16.01a1.418,1.418,0,0,0-2.01,2l2.57,2.55a1.431,1.431,0,0,0,2.01,0,1.4,1.4,0,0,0,0-2Zm-11.83,7.63a1.416,1.416,0,0,0-1.74-1,1.4,1.4,0,0,0-1,1.73l0.94,3.48a1.355,1.355,0,0,0,.36.64,1.437,1.437,0,0,0,1.38.36,1.417,1.417,0,0,0,1.01-1.73Zm8.82-30.05c-1.31-4.1-5.16-3.7-7.98-3.41h0a17.953,17.953,0,0,1-2.13.14l-0.47-.01-0.17-.44a18.782,18.782,0,0,1-.56-2.09c-0.61-2.74-1.46-6.48-5.72-6.52h-0.06a4.712,4.712,0,0,0-4.31,2.35,13.354,13.354,0,0,0-1.36,4.14,18.061,18.061,0,0,1-.52,2.05l-0.16.44-0.48.02a16.286,16.286,0,0,1-2.17-.12c-0.74-.06-1.56-0.14-2.38-0.14-2.29,0-4.63.59-5.62,3.54-1.27,3.76,1.43,5.69,4.31,7.33l0.02,0.02a1.091,1.091,0,0,0,.11.06c0.53,0.31,1.33.77,1.8,1.12l0.37,0.29-0.13.46a17.44,17.44,0,0,1-.78,2.02c-1.12,2.57-2.65,6.09.78,8.61a4.936,4.936,0,0,0,2.97,1.09c2.16,0,4.09-1.73,5.5-2.99a18.2,18.2,0,0,1,1.63-1.35l0.39-.27,0.4,0.26a18.88,18.88,0,0,1,1.68,1.36c2.12,1.86,5.02,4.39,8.49,1.93,3.53-2.5,1.95-6.02.8-8.59a17.846,17.846,0,0,1-.79-1.96l-0.14-.45,0.38-.3a18.244,18.244,0,0,1,1.82-1.16C4663.18,5570.68,4666.51,5568.72,4665.23,5564.69Zm-6.06,4.77c-1.52.9-3.1,1.83-3.54,3.18s0.3,3.01,1.02,4.6c1.33,2.99,1.51,3.93.23,4.84-1.34.95-2.34,0.28-4.64-1.74-1.33-1.16-2.7-2.36-4.13-2.36s-2.79,1.21-4.1,2.38c-1.65,1.48-2.57,2.17-3.39,2.17a1.952,1.952,0,0,1-1.16-.46c-1.33-.97-0.99-2.12.22-4.91,0.71-1.62,1.43-3.3.99-4.64-0.44-1.36-2.01-2.25-3.53-3.12l-0.03-.02c-0.02-.02-0.05-0.03-0.07-0.05-2.74-1.57-3.46-2.25-2.96-3.72,0.35-1.06,1.02-1.43,2.53-1.43,0.54,0,1.24.04,2.24,0.13,1.77,0.17,3.59.33,4.75-.5s1.54-2.61,1.9-4.32c0.64-3,1.01-4.05,2.61-4.05h0.06c1.65,0.02,2.06,1.14,2.73,4.12,0.39,1.71.79,3.49,1.94,4.32s2.98,0.65,4.73.47c3.27-.35,4.23-0.23,4.7,1.26C4662.77,5567.18,4661.87,5567.88,4659.17,5569.46Z" transform="translate(-4614 -5536)"/>
  <path class="cls-2" d="M4627.77,5546.89l-2.57-2.55a1.431,1.431,0,0,0-2.01,0,1.4,1.4,0,0,0,0,2l2.57,2.55a1.431,1.431,0,0,0,2.01,0A1.4,1.4,0,0,0,4627.77,5546.89Zm9.81-5.63a1.462,1.462,0,0,0,.37.64,1.437,1.437,0,0,0,1.38.36,1.4,1.4,0,0,0,1-1.73l-0.94-3.48a1.423,1.423,0,0,0-2.75.73Zm38.81,20.37-3.6.47a1.405,1.405,0,0,0-.36,2.7,1.478,1.478,0,0,0,.73.1l3.6-.47A1.412,1.412,0,1,0,4676.39,5561.63Zm-57.55,7.47-3.6.47a1.412,1.412,0,0,0-.36,2.71,1.477,1.477,0,0,0,.73.09l3.6-.47a1.416,1.416,0,0,0,1.23-1.58A1.435,1.435,0,0,0,4618.84,5569.1Zm47.4,16.01a1.431,1.431,0,0,0-2.01,0,1.4,1.4,0,0,0,0,2l2.57,2.55a1.431,1.431,0,0,0,2.01,0,1.4,1.4,0,0,0,0-2Zm-11.82,7.63a1.423,1.423,0,0,0-1.75-1,1.4,1.4,0,0,0-1,1.73l0.94,3.48a1.355,1.355,0,0,0,.36.64,1.437,1.437,0,0,0,1.38.36,1.4,1.4,0,0,0,1-1.73Zm8.81-30.05c-1.31-4.1-5.16-3.7-7.98-3.41h0a17.953,17.953,0,0,1-2.13.14l-0.47-.01-0.17-.44a18.782,18.782,0,0,1-.56-2.09c-0.61-2.74-1.46-6.48-5.72-6.52h-0.06a4.712,4.712,0,0,0-4.31,2.35,13.354,13.354,0,0,0-1.36,4.14,18.616,18.616,0,0,1-.52,2.05l-0.16.44-0.48.02a16.286,16.286,0,0,1-2.17-.12c-0.74-.06-1.56-0.14-2.38-0.14-2.29,0-4.63.59-5.62,3.54-1.27,3.76,1.43,5.69,4.31,7.33l0.02,0.02a1.091,1.091,0,0,0,.11.06,20.93,20.93,0,0,1,1.79,1.12l0.38,0.29-0.13.46a17.44,17.44,0,0,1-.78,2.02c-1.12,2.57-2.65,6.09.78,8.61a4.936,4.936,0,0,0,2.97,1.09c2.16,0,4.09-1.73,5.5-2.99a18.2,18.2,0,0,1,1.63-1.35l0.39-.27,0.4,0.26a18.88,18.88,0,0,1,1.68,1.36c2.12,1.86,5.02,4.39,8.49,1.93,3.53-2.5,1.95-6.02.8-8.59a17.846,17.846,0,0,1-.79-1.96l-0.14-.45,0.38-.3a18.244,18.244,0,0,1,1.82-1.16C4661.18,5568.68,4664.51,5566.72,4663.23,5562.69Zm-6.06,4.77c-1.52.9-3.1,1.83-3.54,3.18s0.3,3.01,1.02,4.6c1.33,2.99,1.51,3.93.23,4.84-1.34.95-2.34,0.28-4.64-1.74-1.33-1.16-2.7-2.36-4.13-2.36s-2.79,1.21-4.1,2.38c-1.65,1.48-2.57,2.17-3.39,2.17a1.952,1.952,0,0,1-1.16-.46c-1.33-.97-0.99-2.12.22-4.91,0.71-1.62,1.43-3.3.99-4.64s-2.01-2.25-3.53-3.12l-0.03-.03a0.251,0.251,0,0,1-.07-0.04c-2.74-1.57-3.46-2.25-2.96-3.72,0.35-1.06,1.02-1.43,2.54-1.43,0.53,0,1.22.04,2.23,0.13,1.77,0.16,3.59.33,4.75-.5s1.54-2.61,1.9-4.32c0.64-3,1.01-4.05,2.61-4.05h0.06c1.65,0.02,2.06,1.14,2.73,4.12,0.39,1.71.79,3.49,1.94,4.32s2.98,0.65,4.74.47c3.26-.35,4.22-0.23,4.69,1.26C4660.77,5565.18,4659.87,5565.88,4657.17,5567.46Z" transform="translate(-4614 -5536)"/>
</svg>
